Homework 1 - You Can Be A Baseball Analytics Star Too!
…
The second step changes the yearID variable to be a factor (categorical variable) because R will yell at you if year is still a numeric value when plotting.

The third step filters the dataset so that only players with more than 50 at-bats are included. This was a personal choice that you can change if you want! It gets rid of some outliers due to players only batting a few times that year.

The fourth step creates a new variable, avg that holds the batting average, because it was not present in the original dataset.

Problem 1: The code below doesn’t create the side-by-side boxplot of batting average for the two years mentioned above. You need to complete the code so that it produces the correct plot! I have included the ggplot call but you need to choose the right aesthetics and finish the geom_ call. Make sure to remove the hashtags before the last %>% and the ggplot call or it won’t make the graph.

 batting %>% 
    filter(yearID == 1968 | yearID == 1969) %>%
    mutate(yearID = as_factor(yearID)) %>% 
    filter(AB > 50) %>% 
    mutate(avg = H / AB)  # %>% 

# A tibble: 871 × 23
   playerID  yearID stint teamID lgID      G    AB     R     H   X2B   X3B    HR
   <chr>     <fct>  <int> <fct>  <fct> <int> <int> <int> <int> <int> <int> <int>
 1 aaronha01 1968       1 ATL    NL      160   606    84   174    33     4    29
 2 aaronto01 1968       1 ATL    NL       98   283    21    69    10     3     1
 3 adairje01 1968       1 BOS    AL       74   208    18    45     1     0     2
 4 adlesda01 1968       1 HOU    NL       40   104     3    19     1     1     0
 5 ageeto01  1968       1 NYN    NL      132   368    30    80    12     3     5
 6 alcarlu01 1968       1 LAN    NL       41   106     4    16     1     0     2
 7 allenbe01 1968       1 WS2    AL      120   373    31    90    12     4     6
 8 allendi01 1968       1 PHI    NL      152   521    87   137    17     9    33
 9 allenha02 1968       1 WS2    AL       68   128    16    28     2     2     1
10 alleyge01 1968       1 PIT    NL      133   474    48   116    20     2     4
# ℹ 861 more rows
# ℹ 11 more variables: RBI <int>, SB <int>, CS <int>, BB <int>, SO <int>,
#   IBB <int>, HBP <int>, SH <int>, SF <int>, GIDP <int>, avg <dbl>
…
Problem 2: Comment on the plot’s findings.

Answer:

Another interesting time in baseball was the steroid era, which I will define as the 1990’s! During this time, an increased number of major league players used performance enhancing drugs. One way that we could explore the data to see if there were any side-effects is looking at home run production. Specifically, I want to make a plot of the total home run count for every year between 1980 and 2000 with dots and a path between them. This will give us some reference for before and during the time when steroids were present. For this plot, I also want to put the actual home run totals on the plot above the points.

Problem 3: Again, fill in the correct aesthetics that are missing and the correct geoms to make the points and the path between them. Again make sure to take away the hashtags to produce the plot.

batting %>% 
    filter(yearID >= 1980 & yearID <= 2000) %>% 
    group_by(yearID) %>% 
    summarize(hr_total = sum(HR)) # %>% 

# A tibble: 21 × 2
   yearID hr_total
    <int>    <int>
 1   1980     3087
 2   1981     1781
 3   1982     3379
 4   1983     3301
 5   1984     3258
 6   1985     3602
 7   1986     3813
 8   1987     4458
 9   1988     3180
10   1989     3083
# ℹ 11 more rows
…
Problem 5: I have done the filtering for you, but I want you to create the entire ggplot by yourself! I have the ggplot call there but nothing else. Remember to chain ggplot2 statements together with +’s Do the following:

Create a point plot of home runs over the years he was active.

Color the points with the team he was playing for at the time. You’ll need to add another aesthetic.

Change the labels to be more descriptive.

Change the legend so that the legend title says Team and the team name is what’s describing the color (Pirates, Giants). You will accomplish this with the function scale_color_discrete(). Make sure to look it up for reference.

batting %>% 
    filter(playerID == "bondsba01") #%>% 

# A tibble: 22 × 22
   playerID  yearID stint teamID lgID      G    AB     R     H   X2B   X3B    HR
   <chr>      <int> <int> <fct>  <fct> <int> <int> <int> <int> <int> <int> <int>
 1 bondsba01   1986     1 PIT    NL      113   413    72    92    26     3    16
 2 bondsba01   1987     1 PIT    NL      150   551    99   144    34     9    25
 3 bondsba01   1988     1 PIT    NL      144   538    97   152    30     5    24
 4 bondsba01   1989     1 PIT    NL      159   580    96   144    34     6    19
 5 bondsba01   1990     1 PIT    NL      151   519   104   156    32     3    33
 6 bondsba01   1991     1 PIT    NL      153   510    95   149    28     5    25
 7 bondsba01   1992     1 PIT    NL      140   473   109   147    36     5    34
 8 bondsba01   1993     1 SFN    NL      159   539   129   181    38     4    46
 9 bondsba01   1994     1 SFN    NL      112   391    89   122    18     1    37
10 bondsba01   1995     1 SFN    NL      144   506   109   149    30     7    33
# ℹ 12 more rows
# ℹ 10 more variables: RBI <int>, SB <int>, CS <int>, BB <int>, SO <int>,
#   IBB <int>, HBP <int>, SH <int>, SF <int>, GIDP <int>
…
